{
    "width"         : 640,
    "height"        : 480,
    "surfaces"      : {
        "surface1"  : {
            "x"         : 0,
            "y"         : 0,
            "w"         : 640,
            "h"         : 480,
            "canvas"    : "canvas001",
            "type"      : "lcd",
            "rows"      : 1,
            "cols"      : 1
        }
    }
}